{
    "page":1,
    "total_results":107,
    "total_pages":6,
    "results":[
               {
               "vote_count":2841,
               "id":268,
               "video":false,
               "vote_average":7.1,
               "title":"Batman",
               "popularity":16.344943,
               "poster_path":"\/kBf3g9crrADGMc2AMAMlLBgSm2h.jpg",
               "original_language":"en",
               "original_title":"Batman",
               "genre_ids":[
                            14,
                            28
                            ],
               "backdrop_path":"\/2blmxp2pr4BhwQr74AdCfwgfMOb.jpg",
               "adult":false,
               "overview":"The Dark Knight of Gotham City begins his war on crime with his first major enemy being the clownishly homicidal Joker, who has seized control of Gotham's underworld.",
               "release_date":"1989-06-23"
               },
               {
               "vote_count":277,
               "id":2661,
               "video":false,
               "vote_average":6.1,
               "title":"Batman",
               "popularity":9.37568,
               "poster_path":"\/udDVJXtAFsQ8DimrXkVFqy4DGEQ.jpg",
               "original_language":"en",
               "original_title":"Batman",
               "genre_ids":[
                            10751,
                            12,
                            35,
                            878,
                            80
                            ],
               "backdrop_path":"\/5gcdof2PKH1emllBdN1VXU706IP.jpg",
               "adult":false,
               "overview":"The Dynamic Duo faces four super-villains who plan to hold the world for ransom with the help of a secret invention that instantly dehydrates people.",
               "release_date":"1966-07-30"
               },
               {
               "vote_count":9492,
               "id":272,
               "video":false,
               "vote_average":7.6,
               "title":"Batman Begins",
               "popularity":28.527734,
               "poster_path":"\/dr6x4GyyegBWtinPBzipY02J2lV.jpg",
               "original_language":"en",
               "original_title":"Batman Begins",
               "genre_ids":[
                            28,
                            80,
                            18
                            ],
               "backdrop_path":"\/65JWXDCAfwHhJKnDwRnEgVB411X.jpg",
               "adult":false,
               "overview":"Driven by tragedy, billionaire Bruce Wayne dedicates his life to uncovering and defeating the corruption that plagues his home, Gotham City.  Unable to work within the system, he instead creates a new identity, a symbol of fear for the criminal underworld - The Batman.",
               "release_date":"2005-06-10"
               },
               {
               "vote_count":64,
               "id":485942,
               "video":false,
               "vote_average":6.3,
               "title":"Batman Ninja",
               "popularity":19.811286,
               "poster_path":"\/kZIrg87DiU1xKqCNcEV6LMfj3pS.jpg",
               "original_language":"ja",
               "original_title":"ニンジャバットマン",
               "genre_ids":[
                            28,
                            16
                            ],
               "backdrop_path":"\/cDbJAqGIsnpJfiNiYNBQYQs0ZWY.jpg",
               "adult":false,
               "overview":"«Batman Ninja» takes a journey across the ages as Gorilla Grodd's time displacement machine transports many of Batman's worst enemies to feudal Japan —along with the Dark Knight and a few of his allies. The villains take over the forms of the feudal lords that rule the divided land, with the Joker taking the lead among the warring factions. As his traditional high-tech weaponry is exhausted almost immediately, Batman must rely on his intellect and his allies —including Catwoman and the extended Bat-family— to restore order to the land, and return to present-day Gotham City.",
               "release_date":"2018-04-24"
               },
               {
               "vote_count":2288,
               "id":364,
               "video":false,
               "vote_average":6.7,
               "title":"Batman Returns",
               "popularity":16.803994,
               "poster_path":"\/ifzddUhnsTf1h6guBUKBlDwuS1t.jpg",
               "original_language":"en",
               "original_title":"Batman Returns",
               "genre_ids":[
                            28,
                            14
                            ],
               "backdrop_path":"\/reQewz6KndV7Js2mfLfaaX8Rj0T.jpg",
               "adult":false,
               "overview":"Having defeated the Joker, Batman now faces the Penguin - a warped and deformed individual who is intent on being accepted into Gotham society. Crooked businessman Max Schreck is coerced into helping him become Mayor of Gotham and they both attempt to expose Batman in a different light. Selina Kyle, Max's secretary, is thrown from the top of a building and is transformed into Catwoman - a mysterious figure who has the same personality disorder as Batman. Batman must attempt to clear his name, all the time deciding just what must be done with the Catwoman.",
               "release_date":"1992-06-19"
               },
               {
               "vote_count":1948,
               "id":415,
               "video":false,
               "vote_average":4.2,
               "title":"Batman & Robin",
               "popularity":13.777509,
               "poster_path":"\/79AYCcxw3kSKbhGpx1LiqaCAbwo.jpg",
               "original_language":"en",
               "original_title":"Batman & Robin",
               "genre_ids":[
                            878,
                            28,
                            14,
                            35
                            ],
               "backdrop_path":"\/39jbxGwfR4wHBV7apo3JiNdHDHq.jpg",
               "adult":false,
               "overview":"Along with crime-fighting partner Robin and new recruit Batgirl, Batman battles the dual threat of frosty genius Mr. Freeze and homicidal horticulturalist Poison Ivy. Freeze plans to put Gotham City on ice, while Ivy tries to drive a wedge between the dynamic duo.",
               "release_date":"1997-06-20"
               },
               {
               "vote_count":2041,
               "id":414,
               "video":false,
               "vote_average":5.2,
               "title":"Batman Forever",
               "popularity":13.279547,
               "poster_path":"\/eTMrHEhlFPHNxpqGwpGGTdAa0xV.jpg",
               "original_language":"en",
               "original_title":"Batman Forever",
               "genre_ids":[
                            28,
                            80,
                            14
                            ],
               "backdrop_path":"\/bbaiw9VmrHXY3mhCDpj5XB2I5We.jpg",
               "adult":false,
               "overview":"The Dark Knight of Gotham City confronts a dastardly duo: Two-Face and the Riddler. Formerly District Attorney Harvey Dent, Two-Face believes Batman caused the courtroom accident which left him disfigured on one side. And Edward Nygma, computer-genius and former employee of millionaire Bruce Wayne, is out to get the philanthropist; as The Riddler. Former circus acrobat Dick Grayson, his family killed by Two-Face, becomes Wayne's ward and Batman's new partner Robin.",
               "release_date":"1995-06-16"
               },
               {
               "vote_count":2089,
               "id":324849,
               "video":false,
               "vote_average":7.2,
               "title":"The Lego Batman Movie",
               "popularity":14.326188,
               "poster_path":"\/1pHOqpdCYNmtRVJs6pGKQKttrPm.jpg",
               "original_language":"en",
               "original_title":"The Lego Batman Movie",
               "genre_ids":[
                            28,
                            16,
                            35,
                            10751,
                            14
                            ],
               "backdrop_path":"\/jqnbac3oind5VOcAN0mTXyapOGh.jpg",
               "adult":false,
               "overview":"In the irreverent spirit of fun that made “The Lego Movie” a worldwide phenomenon, the self-described leading man of that ensemble—Lego Batman—stars in his own big-screen adventure. But there are big changes brewing in Gotham, and if he wants to save the city from The Joker’s hostile takeover, Batman may have to drop the lone vigilante thing, try to work with others and maybe, just maybe, learn to lighten up.",
               "release_date":"2017-02-08"
               },
               {
               "vote_count":121,
               "id":471474,
               "video":false,
               "vote_average":6.7,
               "title":"Batman: Gotham by Gaslight",
               "popularity":11.688109,
               "poster_path":"\/7souLi5zqQCnpZVghaXv0Wowi0y.jpg",
               "original_language":"en",
               "original_title":"Batman: Gotham by Gaslight",
               "genre_ids":[
                            53,
                            28,
                            16,
                            878
                            ],
               "backdrop_path":"\/9ojJB7vZR2uDqXdxOzYaADthEBT.jpg",
               "adult":false,
               "overview":"In an alternative Victorian Age Gotham City, Batman begins his war on crime while he investigates a new series of murders by Jack the Ripper.",
               "release_date":"2018-01-12"
               },
               {
               "vote_count":9402,
               "id":209112,
               "video":false,
               "vote_average":5.8,
               "title":"Batman v Superman: Dawn of Justice",
               "popularity":33.246021,
               "poster_path":"\/cGOPbv9wA5gEejkUN892JrveARt.jpg",
               "original_language":"en",
               "original_title":"Batman v Superman: Dawn of Justice",
               "genre_ids":[
                            28,
                            12,
                            14
                            ],
               "backdrop_path":"\/vsjBeMPZtyB7yNsYY56XYxifaQZ.jpg",
               "adult":false,
               "overview":"Fearing the actions of a god-like Super Hero left unchecked, Gotham City’s own formidable, forceful vigilante takes on Metropolis’s most revered, modern-day savior, while the world wrestles with what sort of hero it really needs. And with Batman and Superman at war with one another, a new threat quickly arises, putting mankind in greater danger than it’s ever known before.",
               "release_date":"2016-03-23"
               },
               {
               "vote_count":203,
               "id":22855,
               "video":false,
               "vote_average":6.8,
               "title":"Superman\/Batman: Public Enemies",
               "popularity":9.75362,
               "poster_path":"\/bJBZxzFHfTAOtBg8fOCCaBmh4hF.jpg",
               "original_language":"en",
               "original_title":"Superman\/Batman: Public Enemies",
               "genre_ids":[
                            16,
                            28,
                            12,
                            10751
                            ],
               "backdrop_path":"\/aMyEMGuW2NV3A0whuEM7VKp6M73.jpg",
               "adult":false,
               "overview":"United States President Lex Luthor uses the oncoming trajectory of a Kryptonite meteor to frame Superman and declare a $1 billion bounty on the heads of the Man of Steel and his ‘partner in crime’, Batman. Heroes and villains alike launch a relentless pursuit of Superman and Batman, who must unite—and recruit help—to try and stave off the action-packed onslaught, stop the meteor Luthors plot.",
               "release_date":"2009-09-29"
               },
               {
               "vote_count":644,
               "id":382322,
               "video":false,
               "vote_average":6.2,
               "title":"Batman: The Killing Joke",
               "popularity":9.688781,
               "poster_path":"\/zm0ODjtfJfJW0W269LqsQl5OhJ8.jpg",
               "original_language":"en",
               "original_title":"Batman: The Killing Joke",
               "genre_ids":[
                            28,
                            16,
                            80,
                            18
                            ],
               "backdrop_path":"\/iYrE2zV1DfZ3l7Lh4frHzNwFncq.jpg",
               "adult":false,
               "overview":"As Batman hunts for the escaped Joker, the Clown Prince of Crime attacks the Gordon family to prove a diabolical point mirroring his own fall into madness. Based on the graphic novel by Alan Moore and Brian Bolland.",
               "release_date":"2016-07-21"
               },
               {
               "vote_count":357,
               "id":251519,
               "video":false,
               "vote_average":6.7,
               "title":"Son of Batman",
               "popularity":9.256565,
               "poster_path":"\/j3SFJqZPeeB9g5JMU7UFLgEqj2T.jpg",
               "original_language":"en",
               "original_title":"Son of Batman",
               "genre_ids":[
                            16,
                            28,
                            12
                            ],
               "backdrop_path":"\/omK35Mr3oks6bd5efrgsO7CzmLP.jpg",
               "adult":false,
               "overview":"Batman learns that he has a violent, unruly pre-teen son with Talia al Ghul named Damian Wayne who is secretly being raised by Ra's al Ghul and the League of Assassins. When Ra's al Ghul apparently dies after a battle with Deathstroke, Batman must work to stop his long-lost son from taking revenge and guiding him to a righteous path, in addition to the chance for the pair to truly acknowledging each other as family.",
               "release_date":"2014-04-20"
               },
               {
               "vote_count":270,
               "id":321528,
               "video":false,
               "vote_average":6.8,
               "title":"Batman vs. Robin",
               "popularity":7.462127,
               "poster_path":"\/6g7iQJAgyDn9mep98RXhLI64RcA.jpg",
               "original_language":"en",
               "original_title":"Batman vs. Robin",
               "genre_ids":[
                            28,
                            12,
                            16
                            ],
               "backdrop_path":"\/oERfMmGc1GJRnC8IuFUH7zpR5z5.jpg",
               "adult":false,
               "overview":"Damian Wayne is having a hard time coping with his father's \"no killing\" rule. Meanwhile, Gotham is going through hell with threats such as the insane Dollmaker, and the secretive Court of Owls.",
               "release_date":"2015-04-14"
               },
               {
               "vote_count":13,
               "id":125249,
               "video":false,
               "vote_average":6.6,
               "title":"The Bat Man",
               "popularity":2.855569,
               "poster_path":"\/7wnRn8iQ0QInEK1CaZFqw1zPhht.jpg",
               "original_language":"en",
               "original_title":"The Bat Man",
               "genre_ids":[
                            28
                            ],
               "backdrop_path":"\/xEG5iP1qZCiDt4BefSpLy1d54zE.jpg",
               "adult":false,
               "overview":"Japanese master spy Daka operates a covert espionage-sabotage organization located in Gotham City's now-deserted Little Tokyo, which turns American scientists into pliable zombies.",
               "release_date":"1943-07-16"
               },
               {
               "vote_count":286,
               "id":14919,
               "video":false,
               "vote_average":7.5,
               "title":"Batman: Mask of the Phantasm",
               "popularity":9.310854,
               "poster_path":"\/l4jaQjkgznu2Rz05X18f24UjPNW.jpg",
               "original_language":"en",
               "original_title":"Batman: Mask of the Phantasm",
               "genre_ids":[
                            28,
                            12,
                            16,
                            10751
                            ],
               "backdrop_path":"\/jTwt4fcYADv758PVP6DH8ryy4R.jpg",
               "adult":false,
               "overview":"An old flame of Bruce Wayne's strolls into town, re-heating up the romance between the two. At the same time, a mass murderer with an axe for one hand begins systematically eliminating Gotham's crime bosses. Due to the person's dark appearance, he is mistaken for Batman. Now on the run, Batman must solve the mystery and deal with the romance between him and Andrea Beaumont.",
               "release_date":"1993-12-25"
               },
               {
               "vote_count":212,
               "id":13851,
               "video":false,
               "vote_average":6.6,
               "title":"Batman: Gotham Knight",
               "popularity":8.300671,
               "poster_path":"\/eIAhXROHG8t3QQ7qU0HfZgL5XFf.jpg",
               "original_language":"en",
               "original_title":"Batman: Gotham Knight",
               "genre_ids":[
                            16,
                            28,
                            12
                            ],
               "backdrop_path":"\/cAW1NAahXhBUFJZgicBIGPs2OkZ.jpg",
               "adult":false,
               "overview":"Explore Bruce Wayne's transition from his beginning as a tormented vigilantee to The Dark Knight of a crumbling metropolis with six distinct chapters but intended to be viewed as a whole.",
               "release_date":"2008-07-03"
               },
               {
               "vote_count":376,
               "id":242643,
               "video":false,
               "vote_average":7.2,
               "title":"Batman: Assault on Arkham",
               "popularity":8.238334,
               "poster_path":"\/nYOoqnGuiUUNE4gccO0JJigfACP.jpg",
               "original_language":"en",
               "original_title":"Batman: Assault on Arkham",
               "genre_ids":[
                            53,
                            16,
                            28,
                            80
                            ],
               "backdrop_path":"\/rZhblFe1Y9IheA47fO3i0b0qdvt.jpg",
               "adult":false,
               "overview":"Based on the hit video game series, Batman must find a bomb planted by the Joker while dealing with a mysterious team of villains called, The Suicide Squad.",
               "release_date":"2014-08-12"
               },
               {
               "vote_count":180,
               "id":408648,
               "video":false,
               "vote_average":5.8,
               "title":"Batman and Harley Quinn",
               "popularity":6.869297,
               "poster_path":"\/dPsjte846EcEWQpfMmGHrTWIJd8.jpg",
               "original_language":"en",
               "original_title":"Batman and Harley Quinn",
               "genre_ids":[
                            12,
                            28,
                            16,
                            878
                            ],
               "backdrop_path":"\/mBzNVeSRX5LVCi7a3UrPeFWxRqw.jpg",
               "adult":false,
               "overview":"Batman and Nightwing are forced to team with the Joker's sometimes-girlfriend Harley Quinn to stop a global threat brought about by Poison Ivy and Jason Woodrue, the Floronic Man.",
               "release_date":"2017-08-14"
               },
               {
               "vote_count":76,
               "id":20077,
               "video":false,
               "vote_average":6.6,
               "title":"The Batman vs. Dracula",
               "popularity":6.853188,
               "poster_path":"\/vPr6t2stb4NJ54151ms5xu8bykP.jpg",
               "original_language":"en",
               "original_title":"The Batman vs. Dracula",
               "genre_ids":[
                            14,
                            16,
                            27,
                            28,
                            53,
                            878,
                            10751,
                            18,
                            9648
                            ],
               "backdrop_path":"\/4aAlheGhU4rkDE4gSjekBnRXdGL.jpg",
               "adult":false,
               "overview":"Gotham City is terrorized not only by recent escapees Joker and Penguin, but by the original creature of the night, Dracula! Can Batman stop the ruthless vampire before he turns everyone in the city, including The Caped Crusader, Joker and Penguin, into his mindless minions?",
               "release_date":"2005-10-18"
               }
               ]
}
